…
Now we have got the data from all 7 waves in the same data frame
**all7** in the wide format. Note that the panel is unbalanced, i.e. we
included all people who participated in at least one wave of the survey.
Reshape the data to the long format. The resulting data frame should
have six columns for six variables.

``` r
Long <- all7 %>% 
  pivot_longer(a_memorig:g_vote6,names_to = "variable",values_to = "value") %>% separate(variable, into = c("wave","variable"),sep = "_", extra = "merge") %>% pivot_wider(names_from = variable, values_from  = value)

Long
```

    ## # A tibble: 584,234 x 6
    ##        pidp wave  memorig sex_dv age_dv vote6
    ##       <int> <chr>   <int>  <int>  <int> <int>
    ##  1 68001367 a           1      1     39     3
    ##  2 68001367 b          NA     NA     NA    NA
    ##  3 68001367 c          NA     NA     NA    NA
    ##  4 68001367 d          NA     NA     NA    NA
    ##  5 68001367 e          NA     NA     NA    NA
    ##  6 68001367 f          NA     NA     NA    NA
    ##  7 68001367 g          NA     NA     NA    NA
    ##  8 68004087 a           1      1     59     2
    ##  9 68004087 b           1      1     60     2
    ## 10 68004087 c           1      1     61     2
    ## # … with 584,224 more rows
…
    ## # A tibble: 2 x 2
    ##   sex_dv_a mean_delta
    ##   <chr>         <dbl>
    ## 1 female         2.49
    ## 2 male           2.53

``` r
Delta_age.mean <- Delta_wave %>%
  group_by(age_dv_a) %>%
  summarise(mean_delta = mean(Delta, na.rm = TRUE))
Delta_age.mean
```

    ## # A tibble: 78 x 2
    ##    age_dv_a mean_delta
    ##       <int>      <dbl>
    ##  1       15       2   
    ##  2       16       2.78
    ##  3       17       2.55
    ##  4       18       2.83
    ##  5       19       2.82
    ##  6       20       2.39
    ##  7       21       3.08
    ##  8       22       2.59
    ##  9       23       2.42
    ## 10       24       2.15
    ## # … with 68 more rows
…
